%YAML 1.1
%TAG !u! tag:unity3d.com,2011:
--- !u!1045 &1
EditorBuildSettings:
  m_ObjectHideFlags: 0
  serializedVersion: 2
  m_Scenes:
  - enabled: 1
    path: Assets/BeeBoxApp/Scenes/Login.unity
    guid: ee1ac54a31fe51e46b55cf90cf0007da
  - enabled: 1
    path: Assets/BeeBoxApp/Scenes/Cat.unity
    guid: 99c9720ab356a0642a771bea13969a05
  m_configObjects: {}
